<BDD-START>
<DESC = "Nom,Age,Nb_de_dents,Objet_Favori" TYPE = "str,int,flo,str" >
{"Roger","30 ans",12,"Chandellier"}
{"Bebert","5 ans",27,"L'orthogonalité"}Q
{"Casouli","22 ans",67,"67 Dents c'est un putain de requin"}
{"Boby","95 ans",2,"L'ostreiculture"}
{"Gaian","19 ans",31,"doudou"}
{"bob","34 ans",999,"ETRE INSERE"}
{test,t ans,8,arbres}
{taMaman,est,un,chien}
{bonjour,ca,va,?}
{bonjour,ca,va,?}
{"Roger","30 ans",12,"Chandellier"}
{"Bebert","5 ans",27,"L'orthogonalité}Q
{Casouli,22 ans",67,"67 Dents c'est un putain de requin"}
{"Boby","95 ans",2,"L'ostreiculture"}
{"Gaian","19 ans",31,"doudou"}
{"bob","34 ans",999,"ETRE INSERE"}
{test,t ans,8,arbres}
{taMaman,est,un,chien}
{bonjour,ca,va,?}
{bonjour,ca,va,?}
{"Roger","30 ans",12,"Chandellier"}
{"Bebert","5 ans",27,"L'orthogonalité"}Q
{"Casouli","22 ans",67,"67 Dents c'est un putain de requin"}
{"Boby","95 ans",2,"L'ostreiculture"}
{"Gaian","19 ans",31,"doudou"}
{"bob","34 ans",999,"ETRE INSERE"}
{test,t ans,8,arbres}
{taMaman,est,un,chien}
{bonjour,ca,va,?}
{"Casouli","22 ans",67,"67 Dents c'est un putain de requin"}
{"Boby","95 ans",2,"L'ostreiculture"}
{"Gaian","19 ans",31,"doudou"}
{"bob","34 ans",999,"ETRE INSERE"}
{test,t ans,8,arbres}
{taMaman,est,un,chien}
{bonjour,ca,va,?}
{"Casouli","22 ans",67,"67 Dents c'est un putain de requin"}
{"Boby","95 ans",2,"L'ostreiculture"}
{"Gaian","19 ans",31,"doudou"}
{"bob","34 ans",999,"ETRE INSERE"}
{test,t ans,8,arbres}
{taMaman,est,un,chien}
{bonjour,ca,va,?}
{"Casouli","22 ans",67,"67 Dents c'est un putain de requin"}
{"Boby","95 ans",2,"L'ostreiculture"}
{"Gaian","19 ans",31,"doudou"}
{"bob","34 ans",999,"ETRE INSERE"}
{test,t ans,8,arbres}
{taMaman,est,un,chien}
{bonjour,ca,va,?}
{"Casouli","22 ans",67,"67 Dents c'est un putain de requin"}
{"Boby","95 ans",2,"L'ostreiculture"}
{"Gaian","19 ans",31,"doudou"}
{"bob","34 ans",999,"ETRE INSERE"}
{test,t ans,8,arbres}
{taMaman,est,un,chien}
{bonjour,ca,va,?}
{"Boby","95 ans",2,"L'ostreiculture"}
{"Gaian","19 ans",31,"doudou"}
{"bob","34 ans",999,"ETRE INSERE"}
{test,t ans,8,arbres}
{taMaman,est,un,chien}
{"Boby","95 ans",2,"L'ostreiculture"}
{"Gaian","19 ans",31,"doudou"}
{"bob","34 ans",999,"ETRE INSERE"}
{test,t ans,8,arbres}
{taMaman,est,un,chien}
{"Boby","95 ans",2,"L'ostreiculture"}
{"Gaian","19 ans",31,"doudou"}
{"bob","34 ans",999,"ETRE INSERE"}
{test,t ans,8,arbres}
{taMaman,est,un,chien}
{"Boby","95 ans",2,"L'ostreiculture"}
{"Gaian","19 ans",31,"doudou"}
{"bob","34 ans",999,"ETRE INSERE"}
{test,t ans,8,arbres}
{taMaman,est,un,chien}
{bonjour,ca,va,?}
{a,a,a,a}
<BDD-END>
